2 Fundamentals – Actionable Data with Shiny Dashboards
…
Complex app to create using water quality data from Tampa Bay, FL.

In this extended tutorial, we will explore more complex topics of reactivity and data wrangling with dplyr. We’ll also demonstrate the advantages of using R libraries that wrap JavaScript functionality, in particular using plotly{target =’_blank”} to make static plots more interactive.

2.5.1 Prepare data

First, let’s prepare the water quality data for our app using a dataset from the Tampa Bay Estuary Program R package tbeptools.

library(tbeptools)
epcdata

# A tibble: 28,501 × 26
   bay_segment epchc_station SampleTime             yr    mo Latitude Longitude
   <chr>               <dbl> <dttm>              <dbl> <dbl>    <dbl>     <dbl>
 1 HB                      6 2024-12-09 09:27:00  2024    12     27.9     -82.5
 2 HB                      7 2024-12-09 09:38:00  2024    12     27.9     -82.5
 3 HB                      8 2024-12-09 11:42:00  2024    12     27.9     -82.4
 4 MTB                     9 2024-12-09 11:02:00  2024    12     27.8     -82.4
 5 MTB                    11 2024-12-09 09:52:00  2024    12     27.8     -82.5
 6 MTB                    13 2024-12-09 10:04:00  2024    12     27.8     -82.5
 7 MTB                    14 2024-12-09 10:37:00  2024    12     27.8     -82.5
 8 MTB                    16 2024-12-16 09:44:00  2024    12     27.7     -82.5
 9 MTB                    19 2024-12-16 09:59:00  2024    12     27.7     -82.6
10 LTB                    23 2024-12-16 13:33:00  2024    12     27.7     -82.6
# ℹ 28,491 more rows
# ℹ 19 more variables: Total_Depth_m <dbl>, Sample_Depth_m <dbl>, tn <dbl>,
#   tn_q <chr>, sd_m <dbl>, sd_raw_m <dbl>, sd_q <chr>, chla <dbl>,
#   chla_q <chr>, Sal_Top_ppth <dbl>, Sal_Mid_ppth <dbl>,
#   Sal_Bottom_ppth <dbl>, Temp_Water_Top_degC <dbl>,
#   Temp_Water_Mid_degC <dbl>, Temp_Water_Bottom_degC <dbl>,
#   `Turbidity_JTU-NTU` <chr>, Turbidity_Q <chr>, Color_345_F45_PCU <chr>, …
…
# * prep data ----
d <- epcdata |>
  select(
    station                 = epchc_station,
    SampleTime,
    `Total Nitrogen (mg/L)` = tn,
    `Chlorophyll-a (ug/L)`  = chla,
    `Secchi depth (m)`      = sd_m) |>
  pivot_longer(
    names_to  = "indicator",
    values_to = "value",
    `Total Nitrogen (mg/L)`:`Secchi depth (m)`)
d

# A tibble: 85,503 × 4
   station SampleTime          indicator               value
     <dbl> <dttm>              <chr>                   <dbl>
 1       6 2024-12-09 09:27:00 Total Nitrogen (mg/L)   0.246
 2       6 2024-12-09 09:27:00 Chlorophyll-a (ug/L)    6.6  
 3       6 2024-12-09 09:27:00 Secchi depth (m)        1.9  
 4       7 2024-12-09 09:38:00 Total Nitrogen (mg/L)   0.352
 5       7 2024-12-09 09:38:00 Chlorophyll-a (ug/L)    3.9  
 6       7 2024-12-09 09:38:00 Secchi depth (m)        2.8  
 7       8 2024-12-09 11:42:00 Total Nitrogen (mg/L)   0.315
 8       8 2024-12-09 11:42:00 Chlorophyll-a (ug/L)    5.3  
 9       8 2024-12-09 11:42:00 Secchi depth (m)      NaN    
10       9 2024-12-09 11:02:00 Total Nitrogen (mg/L)   0.18 
# ℹ 85,493 more rows
…
